[
    {
      "_id": "6045e930b17a1d8ac1aa8094",
      "index": 0,
      "guid": "7b95d851-8ab9-4ee6-b42c-78c88be8a235",
      "isActive": true,
      "balance": "$2,878.76",
      "picture": "http://placehold.it/32x32",
      "age": 40,
      "eyeColor": "brown",
      "name": "Lela Medina",
      "gender": "female",
      "company": "GEEKETRON",
      "email": "lelamedina@geeketron.com",
      "phone": "+1 (855) 465-3963",
      "address": "851 Leonora Court, Coloma, Kentucky, 1077",
      "about": "Fugiat reprehenderit magna excepteur laboris magna aute dolore adipisicing excepteur esse tempor dolore. Ad ea veniam irure aute eiusmod mollit exercitation mollit culpa adipisicing fugiat labore. Aliqua elit nisi eiusmod incididunt pariatur proident occaecat nisi consectetur voluptate. Ullamco labore excepteur cillum minim consequat. Nisi tempor occaecat ipsum cupidatat exercitation aliqua laborum incididunt veniam exercitation irure sint dolore. Reprehenderit non aute excepteur ex.\r\n",
      "registered": "2018-08-08T03:31:26 -08:00",
      "latitude": -1.140933,
      "longitude": -107.279395,
      "tags": [
        "adipisicing",
        "quis",
        "ad",
        "cupidatat",
        "nulla",
        "non",
        "sint"
      ],
      "friends": [
        {
          "id": 0,
          "name": "Toni Luna"
        },
        {
          "id": 1,
          "name": "Stevenson Henderson"
        },
        {
          "id": 2,
          "name": "Fowler Powell"
        }
      ],
      "greeting": "Hello, Lela Medina! You have 9 unread messages.",
      "favoriteFruit": "strawberry"
    },
    {
      "_id": "6045e930ebbc7feea507574e",
      "index": 1,
      "guid": "ebb64044-25f3-40f4-98b4-86798808a23f",
      "isActive": false,
      "balance": "$2,431.07",
      "picture": "http://placehold.it/32x32",
      "age": 35,
      "eyeColor": "green",
      "name": "Ortiz Walsh",
      "gender": "male",
      "company": "NEPTIDE",
      "email": "ortizwalsh@neptide.com",
      "phone": "+1 (926) 521-2568",
      "address": "960 Congress Street, Hegins, Kansas, 6222",
      "about": "Pariatur in cillum duis mollit laborum aliqua mollit mollit consequat dolor aliqua ea excepteur. Enim deserunt enim reprehenderit ut incididunt laboris non consequat. Ut adipisicing qui ullamco labore reprehenderit esse adipisicing Lorem consequat proident fugiat. Dolore consectetur aliquip magna ad consectetur consectetur. In incididunt veniam duis esse mollit tempor occaecat reprehenderit occaecat irure voluptate ullamco ea reprehenderit. Mollit irure deserunt aliquip cillum fugiat nostrud ipsum sunt occaecat. Aliquip veniam duis amet quis nisi nulla magna velit duis incididunt et laboris ad dolore.\r\n",
      "registered": "2016-02-02T07:46:10 -08:00",
      "latitude": -64.59641,
      "longitude": -83.084572,
      "tags": [
        "amet",
        "commodo",
        "mollit",
        "dolor",
        "commodo",
        "qui",
        "veniam"
      ],
      "friends": [
        {
          "id": 0,
          "name": "Cantu Barnes"
        },
        {
          "id": 1,
          "name": "Helene Barr"
        },
        {
          "id": 2,
          "name": "Watson Berry"
        }
      ],
      "greeting": "Hello, Ortiz Walsh! You have 9 unread messages.",
      "favoriteFruit": "apple"
    },
    {
      "_id": "6045e930dbfc95cf7829457e",
      "index": 2,
      "guid": "208856e4-1794-4782-afa6-a268c03851dc",
      "isActive": true,
      "balance": "$1,555.74",
      "picture": "http://placehold.it/32x32",
      "age": 34,
      "eyeColor": "blue",
      "name": "Shawn Kirk",
      "gender": "female",
      "company": "FORTEAN",
      "email": "shawnkirk@fortean.com",
      "phone": "+1 (927) 484-3784",
      "address": "685 Stillwell Avenue, Williamson, Oklahoma, 5880",
      "about": "Ullamco cupidatat officia ad sunt in incididunt occaecat. Tempor cillum mollit laborum sint deserunt incididunt tempor eiusmod in. Tempor irure nulla ad ex consectetur adipisicing incididunt. Amet cupidatat aute culpa est proident nisi fugiat veniam irure. Elit proident deserunt dolore consectetur ut reprehenderit amet nostrud dolor exercitation. Consequat Lorem eu irure exercitation qui.\r\n",
      "registered": "2016-01-18T07:52:36 -08:00",
      "latitude": 22.865879,
      "longitude": 131.2962,
      "tags": [
        "ullamco",
        "fugiat",
        "laboris",
        "irure",
        "reprehenderit",
        "proident",
        "labore"
      ],
      "friends": [
        {
          "id": 0,
          "name": "Vaughn Leonard"
        },
        {
          "id": 1,
          "name": "Vilma Walton"
        },
        {
          "id": 2,
          "name": "Tonia Stuart"
        }
      ],
      "greeting": "Hello, Shawn Kirk! You have 8 unread messages.",
      "favoriteFruit": "apple"
    },
    {
      "_id": "6045e930656e03d7ac6314c7",
      "index": 3,
      "guid": "92398d24-abea-47eb-b3e4-46c58de778a9",
      "isActive": true,
      "balance": "$3,814.60",
      "picture": "http://placehold.it/32x32",
      "age": 29,
      "eyeColor": "blue",
      "name": "Eloise Moran",
      "gender": "female",
      "company": "BULLZONE",
      "email": "eloisemoran@bullzone.com",
      "phone": "+1 (851) 402-3290",
      "address": "151 Grace Court, Rockingham, Missouri, 2159",
      "about": "Qui nulla elit nisi officia sunt culpa deserunt veniam enim sit. Dolor proident nulla magna culpa mollit officia. Sint officia qui occaecat non labore voluptate eiusmod et Lorem. Lorem dolore est minim magna incididunt elit incididunt.\r\n",
      "registered": "2014-06-07T03:00:40 -08:00",
      "latitude": -12.742727,
      "longitude": 91.153549,
      "tags": [
        "tempor",
        "esse",
        "est",
        "fugiat",
        "est",
        "esse",
        "consequat"
      ],
      "friends": [
        {
          "id": 0,
          "name": "Alyson Bean"
        },
        {
          "id": 1,
          "name": "Morin Witt"
        },
        {
          "id": 2,
          "name": "Calhoun Meyers"
        }
      ],
      "greeting": "Hello, Eloise Moran! You have 2 unread messages.",
      "favoriteFruit": "banana"
    },
    {
      "_id": "6045e9309e9aa67e01190c01",
      "index": 4,
      "guid": "4969fa6d-7b3d-4743-9a3e-b69633a2326d",
      "isActive": false,
      "balance": "$2,152.80",
      "picture": "http://placehold.it/32x32",
      "age": 25,
      "eyeColor": "blue",
      "name": "Olivia Pace",
      "gender": "female",
      "company": "ZIPAK",
      "email": "oliviapace@zipak.com",
      "phone": "+1 (840) 559-3484",
      "address": "556 Lloyd Court, Robinson, Vermont, 4279",
      "about": "Aute sit ut enim proident elit et tempor incididunt. Excepteur ut ut velit pariatur culpa ad ipsum. Enim eiusmod et mollit fugiat ullamco aute id.\r\n",
      "registered": "2018-06-22T09:12:58 -08:00",
      "latitude": 16.865719,
      "longitude": -61.97515,
      "tags": [
        "velit",
        "ut",
        "labore",
        "culpa",
        "consectetur",
        "amet",
        "voluptate"
      ],
      "friends": [
        {
          "id": 0,
          "name": "Perez Walls"
        },
        {
          "id": 1,
          "name": "Dena Leon"
        },
        {
          "id": 2,
          "name": "Livingston Moody"
        }
      ],
      "greeting": "Hello, Olivia Pace! You have 4 unread messages.",
      "favoriteFruit": "banana"
    },
    {
      "_id": "6045e93003ea811bbf5e7772",
      "index": 5,
      "guid": "98472b04-664c-4055-ab66-d7e86baef0b1",
      "isActive": true,
      "balance": "$2,111.31",
      "picture": "http://placehold.it/32x32",
      "age": 39,
      "eyeColor": "blue",
      "name": "Jane Savage",
      "gender": "female",
      "company": "AMRIL",
      "email": "janesavage@amril.com",
      "phone": "+1 (891) 418-3709",
      "address": "362 Dahl Court, Why, Virginia, 9370",
      "about": "Nisi id voluptate nisi ut sint ullamco id dolore Lorem sunt ad. Amet est sunt duis excepteur est fugiat ullamco ipsum velit. Ad exercitation deserunt mollit ea cupidatat aliquip velit aute aliquip.\r\n",
      "registered": "2020-05-14T12:45:26 -08:00",
      "latitude": -9.377097,
      "longitude": -45.770468,
      "tags": [
        "pariatur",
        "elit",
        "sint",
        "anim",
        "quis",
        "adipisicing",
        "dolore"
      ],
      "friends": [
        {
          "id": 0,
          "name": "Mckenzie Mccoy"
        },
        {
          "id": 1,
          "name": "Sylvia Bond"
        },
        {
          "id": 2,
          "name": "Cristina Rosario"
        }
      ],
      "greeting": "Hello, Jane Savage! You have 2 unread messages.",
      "favoriteFruit": "apple"
    }
  ]